Introduction to the tidyverse: data manipulation with dplyr
…
## Warning: package 'tidyr' was built under R version 3.4.3

## Warning: package 'stringr' was built under R version 3.4.3

Note conflicts when you load the tidyverse

Take careful note of the conflicts message that’s printed when you load the tidyverse. It tells you that dplyr overwrites some functions in base R. If you want to use the base version of these functions after loading dplyr, you’ll need to use their full names: stats::filter() and stats::lag().

nycflights13

Example data: nycflights13::flights. This data frame contains all 336,776 flights that departed from New York City in 2013.

flights

## # A tibble: 336,776 x 19
##     year month   day dep_time sched_dep_time dep_delay arr_time
##    <int> <int> <int>    <int>          <int>     <dbl>    <int>
##  1  2013     1     1      517            515        2.      830
##  2  2013     1     1      533            529        4.      850
##  3  2013     1     1      542            540        2.      923
##  4  2013     1     1      544            545       -1.     1004
##  5  2013     1     1      554            600       -6.      812
##  6  2013     1     1      554            558       -4.      740
##  7  2013     1     1      555            600       -5.      913
##  8  2013     1     1      557            600       -3.      709
##  9  2013     1     1      557            600       -3.      838
## 10  2013     1     1      558            600       -2.      753
## # ... with 336,766 more rows, and 12 more variables: sched_arr_time <int>,
## #   arr_delay <dbl>, carrier <chr>, flight <int>, tailnum <chr>,
## #   origin <chr>, dest <chr>, air_time <dbl>, distance <dbl>, hour <dbl>,
## #   minute <dbl>, time_hour <dttm>
…
The subsequent arguments describe what to do with the data frame, using the variable names (without quotes).

The result is a new data frame.

Together these properties make it easy to chain together multiple simple steps to achieve a complex result. Let’s dive in and see how these verbs work.

Choose rows with filter()

For example, we can select all flights on January 1st with:

filter(flights, month == 1, day == 1)

## Warning: package 'bindrcpp' was built under R version 3.4.4

## # A tibble: 842 x 19
##     year month   day dep_time sched_dep_time dep_delay arr_time
##    <int> <int> <int>    <int>          <int>     <dbl>    <int>
##  1  2013     1     1      517            515        2.      830
##  2  2013     1     1      533            529        4.      850
##  3  2013     1     1      542            540        2.      923
##  4  2013     1     1      544            545       -1.     1004
##  5  2013     1     1      554            600       -6.      812
##  6  2013     1     1      554            558       -4.      740
##  7  2013     1     1      555            600       -5.      913
##  8  2013     1     1      557            600       -3.      709
##  9  2013     1     1      557            600       -3.      838
## 10  2013     1     1      558            600       -2.      753
## # ... with 832 more rows, and 12 more variables: sched_arr_time <int>,
## #   arr_delay <dbl>, carrier <chr>, flight <int>, tailnum <chr>,
## #   origin <chr>, dest <chr>, air_time <dbl>, distance <dbl>, hour <dbl>,
## #   minute <dbl>, time_hour <dttm>
…
filter(df, is.na(x) | x > 1)

## # A tibble: 2 x 1
##       x
##   <dbl>
## 1   NA 
## 2    3.

Arrange rows with arrange()

arrange() changes the order of rows order. It takes a data frame and a set of column names (or more complicated expressions) to order by. If you provide more than one column name, each additional column will be used to break ties in the values of preceding columns:

arrange(flights, year, month, day)

## # A tibble: 336,776 x 19
##     year month   day dep_time sched_dep_time dep_delay arr_time
##    <int> <int> <int>    <int>          <int>     <dbl>    <int>
##  1  2013     1     1      517            515        2.      830
##  2  2013     1     1      533            529        4.      850
##  3  2013     1     1      542            540        2.      923
##  4  2013     1     1      544            545       -1.     1004
##  5  2013     1     1      554            600       -6.      812
##  6  2013     1     1      554            558       -4.      740
##  7  2013     1     1      555            600       -5.      913
##  8  2013     1     1      557            600       -3.      709
##  9  2013     1     1      557            600       -3.      838
## 10  2013     1     1      558            600       -2.      753
## # ... with 336,766 more rows, and 12 more variables: sched_arr_time <int>,
## #   arr_delay <dbl>, carrier <chr>, flight <int>, tailnum <chr>,
## #   origin <chr>, dest <chr>, air_time <dbl>, distance <dbl>, hour <dbl>,
## #   minute <dbl>, time_hour <dttm>

Arrange rows with arrange()

Use desc() to re-order by a column in descending order:

arrange(flights, desc(arr_delay))

## # A tibble: 336,776 x 19
##     year month   day dep_time sched_dep_time dep_delay arr_time
##    <int> <int> <int>    <int>          <int>     <dbl>    <int>
##  1  2013     1     9      641            900     1301.     1242
##  2  2013     6    15     1432           1935     1137.     1607
##  3  2013     1    10     1121           1635     1126.     1239
##  4  2013     9    20     1139           1845     1014.     1457
##  5  2013     7    22      845           1600     1005.     1044
##  6  2013     4    10     1100           1900      960.     1342
##  7  2013     3    17     2321            810      911.      135
##  8  2013     7    22     2257            759      898.      121
##  9  2013    12     5      756           1700      896.     1058
## 10  2013     5     3     1133           2055      878.     1250
## # ... with 336,766 more rows, and 12 more variables: sched_arr_time <int>,
## #   arr_delay <dbl>, carrier <chr>, flight <int>, tailnum <chr>,
## #   origin <chr>, dest <chr>, air_time <dbl>, distance <dbl>, hour <dbl>,
## #   minute <dbl>, time_hour <dttm>
…
## # A tibble: 3 x 1
##       x
##   <dbl>
## 1    5.
## 2    2.
## 3   NA

Select columns with select()

select() chooses the columns you want out of the whole set of columns

# Select columns by name
select(flights, year, month, day)

## # A tibble: 336,776 x 3
##     year month   day
##    <int> <int> <int>
##  1  2013     1     1
##  2  2013     1     1
##  3  2013     1     1
##  4  2013     1     1
##  5  2013     1     1
##  6  2013     1     1
##  7  2013     1     1
##  8  2013     1     1
##  9  2013     1     1
## 10  2013     1     1
## # ... with 336,766 more rows

Select columns with select()

# Select all columns between year and day (inclusive)
select(flights, year:day)

## # A tibble: 336,776 x 3
##     year month   day
##    <int> <int> <int>
##  1  2013     1     1
##  2  2013     1     1
##  3  2013     1     1
##  4  2013     1     1
##  5  2013     1     1
##  6  2013     1     1
##  7  2013     1     1
##  8  2013     1     1
##  9  2013     1     1
## 10  2013     1     1
## # ... with 336,766 more rows

Select columns with select()

# Select all columns except those from year to day (inclusive)
select(flights, -(year:day))

## # A tibble: 336,776 x 16
##    dep_time sched_dep_time dep_delay arr_time sched_arr_time arr_delay
##       <int>          <int>     <dbl>    <int>          <int>     <dbl>
##  1      517            515        2.      830            819       11.
##  2      533            529        4.      850            830       20.
##  3      542            540        2.      923            850       33.
##  4      544            545       -1.     1004           1022      -18.
##  5      554            600       -6.      812            837      -25.
##  6      554            558       -4.      740            728       12.
##  7      555            600       -5.      913            854       19.
##  8      557            600       -3.      709            723      -14.
##  9      557            600       -3.      838            846       -8.
## 10      558            600       -2.      753            745        8.
## # ... with 336,766 more rows, and 10 more variables: carrier <chr>,
## #   flight <int>, tailnum <chr>, origin <chr>, dest <chr>, air_time <dbl>,
## #   distance <dbl>, hour <dbl>, minute <dbl>, time_hour <dttm>
…
contains("ijk"): matches names that contain “ijk”.

matches("(.)\\1"): selects variables that match a regular expression. This one matches any variables that contain repeated characters. You’ll learn more about regular expressions in [strings].

num_range("x", 1:3) matches x1, x2 and x3.

Use rename() to rename variables

select() can be used to rename variables, but it’s rarely useful because it drops all of the variables not explicitly mentioned. Instead, use rename(), which is a variant of select() that keeps all the variables that aren’t explicitly mentioned:

Use rename() to rename variables

rename(flights, tail_num = tailnum)

## # A tibble: 336,776 x 19
##     year month   day dep_time sched_dep_time dep_delay arr_time
##    <int> <int> <int>    <int>          <int>     <dbl>    <int>
##  1  2013     1     1      517            515        2.      830
##  2  2013     1     1      533            529        4.      850
##  3  2013     1     1      542            540        2.      923
##  4  2013     1     1      544            545       -1.     1004
##  5  2013     1     1      554            600       -6.      812
##  6  2013     1     1      554            558       -4.      740
##  7  2013     1     1      555            600       -5.      913
##  8  2013     1     1      557            600       -3.      709
##  9  2013     1     1      557            600       -3.      838
## 10  2013     1     1      558            600       -2.      753
## # ... with 336,766 more rows, and 12 more variables: sched_arr_time <int>,
## #   arr_delay <dbl>, carrier <chr>, flight <int>, tail_num <chr>,
## #   origin <chr>, dest <chr>, air_time <dbl>, distance <dbl>, hour <dbl>,
## #   minute <dbl>, time_hour <dttm>
…
flights_sml <- select(flights, 
  year:day, 
  ends_with("delay"), 
  distance, 
  air_time
)

Add new variables with mutate()

mutate(flights_sml,
  gain = arr_delay - dep_delay,
  speed = distance / air_time * 60
)

## # A tibble: 336,776 x 9
##     year month   day dep_delay arr_delay distance air_time  gain speed
##    <int> <int> <int>     <dbl>     <dbl>    <dbl>    <dbl> <dbl> <dbl>
##  1  2013     1     1        2.       11.    1400.     227.    9.  370.
##  2  2013     1     1        4.       20.    1416.     227.   16.  374.
##  3  2013     1     1        2.       33.    1089.     160.   31.  408.
##  4  2013     1     1       -1.      -18.    1576.     183.  -17.  517.
##  5  2013     1     1       -6.      -25.     762.     116.  -19.  394.
##  6  2013     1     1       -4.       12.     719.     150.   16.  288.
##  7  2013     1     1       -5.       19.    1065.     158.   24.  404.
##  8  2013     1     1       -3.      -14.     229.      53.  -11.  259.
##  9  2013     1     1       -3.       -8.     944.     140.   -5.  405.
## 10  2013     1     1       -2.        8.     733.     138.   10.  319.
## # ... with 336,766 more rows

Add new variables with mutate()

Note that you can refer to columns that you’ve just created:

mutate(flights_sml,
  gain = arr_delay - dep_delay,
  hours = air_time / 60,
  gain_per_hour = gain / hours
)

## # A tibble: 336,776 x 10
##     year month   day dep_delay arr_delay distance air_time  gain hours
##    <int> <int> <int>     <dbl>     <dbl>    <dbl>    <dbl> <dbl> <dbl>
##  1  2013     1     1        2.       11.    1400.     227.    9. 3.78 
##  2  2013     1     1        4.       20.    1416.     227.   16. 3.78 
##  3  2013     1     1        2.       33.    1089.     160.   31. 2.67 
##  4  2013     1     1       -1.      -18.    1576.     183.  -17. 3.05 
##  5  2013     1     1       -6.      -25.     762.     116.  -19. 1.93 
##  6  2013     1     1       -4.       12.     719.     150.   16. 2.50 
##  7  2013     1     1       -5.       19.    1065.     158.   24. 2.63 
##  8  2013     1     1       -3.      -14.     229.      53.  -11. 0.883
##  9  2013     1     1       -3.       -8.     944.     140.   -5. 2.33 
## 10  2013     1     1       -2.        8.     733.     138.   10. 2.30 
## # ... with 336,766 more rows, and 1 more variable: gain_per_hour <dbl>

Add new variables with mutate()

If you only want to keep the new variables, use transmute():

transmute(flights,
  gain = arr_delay - dep_delay,
  hours = air_time / 60,
  gain_per_hour = gain / hours
)

## # A tibble: 336,776 x 3
##     gain hours gain_per_hour
##    <dbl> <dbl>         <dbl>
##  1    9. 3.78           2.38
##  2   16. 3.78           4.23
##  3   31. 2.67          11.6 
##  4  -17. 3.05          -5.57
##  5  -19. 1.93          -9.83
##  6   16. 2.50           6.40
##  7   24. 2.63           9.11
##  8  -11. 0.883        -12.5 
##  9   -5. 2.33          -2.14
## 10   10. 2.30           4.35
## # ... with 336,766 more rows
…
There are many functions for creating new variables that you can use with mutate(). The key property is that the function must be vectorised: it must take a vector of values as input, return a vector with the same number of values as output. There’s no way to list every possible function that you might use, but here’s a selection of functions that are frequently useful:

Arithmetic operators: +, -, *, /, ^. These are all vectorised, using the so called “recycling rules”. If one parameter is shorter than the other, it will be automatically extended to be the same length. This is most useful when one of the arguments is a single number: air_time / 60, hours * 60 + minute, etc.

Arithmetic operators are also useful in conjunction with the aggregate functions you’ll learn about later. For example, x / sum(x) calculates the proportion of a total, and y - mean(y) computes the difference from the mean.

Modular arithmetic: %/% (integer division) and %% (remainder), where x == y * (x %/% y) + (x %% y). Modular arithmetic is a handy tool because it allows you to break integers up into pieces. For example, in the flights dataset, you can compute hour and minute from dep_time with:

transmute(flights,
  dep_time,
  hour = dep_time %/% 100,
  minute = dep_time %% 100
)

## # A tibble: 336,776 x 3
##    dep_time  hour minute
##       <int> <dbl>  <dbl>
##  1      517    5.    17.
##  2      533    5.    33.
##  3      542    5.    42.
##  4      544    5.    44.
##  5      554    5.    54.
##  6      554    5.    54.
##  7      555    5.    55.
##  8      557    5.    57.
##  9      557    5.    57.
## 10      558    5.    58.
## # ... with 336,766 more rows
…
summarise(flights, delay = mean(dep_delay, na.rm = TRUE))

## # A tibble: 1 x 1
##   delay
##   <dbl>
## 1  12.6

(We’ll come back to what that na.rm = TRUE means very shortly.)

summarise() is not terribly useful unless we pair it with group_by(). This changes the unit of analysis from the complete dataset to individual groups. Then, when you use the dplyr verbs on a grouped data frame they’ll be automatically applied “by group”. For example, if we applied exactly the same code to a data frame grouped by date, we get the average delay per date:

by_day <- group_by(flights, year, month, day)
summarise(by_day, delay = mean(dep_delay, na.rm = TRUE))

## # A tibble: 365 x 4
## # Groups:   year, month [?]
##     year month   day delay
##    <int> <int> <int> <dbl>
##  1  2013     1     1 11.5 
##  2  2013     1     2 13.9 
##  3  2013     1     3 11.0 
##  4  2013     1     4  8.95
##  5  2013     1     5  5.73
##  6  2013     1     6  7.15
##  7  2013     1     7  5.42
##  8  2013     1     8  2.55
##  9  2013     1     9  2.28
## 10  2013     1    10  2.84
## # ... with 355 more rows
…
This focuses on the transformations, not what’s being transformed, which makes the code easier to read. You can read it as a series of imperative statements: group, then summarise, then filter. As suggested by this reading, a good way to pronounce %>% when reading code is “then”.

Behind the scenes, x %>% f(y) turns into f(x, y), and x %>% f(y) %>% g(z) turns into g(f(x, y), z) and so on. You can use the pipe to rewrite multiple operations in a way that you can read left-to-right, top-to-bottom. We’ll use piping frequently from now on because it considerably improves the readability of code, and we’ll come back to it in more detail in [pipes].

Working with the pipe is one of the key criteria for belonging to the tidyverse. The only exception is ggplot2: it was written before the pipe was discovered. Unfortunately, the next iteration of ggplot2, ggvis, which does use the pipe, isn’t quite ready for prime time yet.

Missing values

You may have wondered about the na.rm argument we used above. What happens if we don’t set it?

flights %>% 
  group_by(year, month, day) %>% 
  summarise(mean = mean(dep_delay))

## # A tibble: 365 x 4
## # Groups:   year, month [?]
##     year month   day  mean
##    <int> <int> <int> <dbl>
##  1  2013     1     1    NA
##  2  2013     1     2    NA
##  3  2013     1     3    NA
##  4  2013     1     4    NA
##  5  2013     1     5    NA
##  6  2013     1     6    NA
##  7  2013     1     7    NA
##  8  2013     1     8    NA
##  9  2013     1     9    NA
## 10  2013     1    10    NA
## # ... with 355 more rows

We get a lot of missing values! That’s because aggregation functions obey the usual rule of missing values: if there’s any missing value in the input, the output will be a missing value. Fortunately, all aggregation functions have an na.rm argument which removes the missing values prior to computation:

flights %>% 
  group_by(year, month, day) %>% 
  summarise(mean = mean(dep_delay, na.rm = TRUE))

## # A tibble: 365 x 4
## # Groups:   year, month [?]
##     year month   day  mean
##    <int> <int> <int> <dbl>
##  1  2013     1     1 11.5 
##  2  2013     1     2 13.9 
##  3  2013     1     3 11.0 
##  4  2013     1     4  8.95
##  5  2013     1     5  5.73
##  6  2013     1     6  7.15
##  7  2013     1     7  5.42
##  8  2013     1     8  2.55
##  9  2013     1     9  2.28
## 10  2013     1    10  2.84
## # ... with 355 more rows

In this case, where missing values represent cancelled flights, we could also tackle the problem by first removing the cancelled flights. We’ll save this dataset so we can reuse in the next few examples.

not_cancelled <- flights %>% 
  filter(!is.na(dep_delay), !is.na(arr_delay))

not_cancelled %>% 
  group_by(year, month, day) %>% 
  summarise(mean = mean(dep_delay))

## # A tibble: 365 x 4
## # Groups:   year, month [?]
##     year month   day  mean
##    <int> <int> <int> <dbl>
##  1  2013     1     1 11.4 
##  2  2013     1     2 13.7 
##  3  2013     1     3 10.9 
##  4  2013     1     4  8.97
##  5  2013     1     5  5.73
##  6  2013     1     6  7.15
##  7  2013     1     7  5.42
##  8  2013     1     8  2.56
##  9  2013     1     9  2.30
## 10  2013     1    10  2.84
## # ... with 355 more rows
…
Counts

You’ve seen n(), which takes no arguments, and returns the size of the current group. To count the number of non-missing values, use sum(!is.na(x)). To count the number of distinct (unique) values, use n_distinct(x).

```r
# Which destinations have the most carriers?
not_cancelled %>% 
  group_by(dest) %>% 
  summarise(carriers = n_distinct(carrier)) %>% 
  arrange(desc(carriers))
```

```
## # A tibble: 104 x 2
##    dest  carriers
##    <chr>    <int>
##  1 ATL          7
##  2 BOS          7
##  3 CLT          7
##  4 ORD          7
##  5 TPA          7
##  6 AUS          6
##  7 DCA          6
##  8 DTW          6
##  9 IAD          6
## 10 MSP          6
## # ... with 94 more rows
```
…
