Introduction to the tidyverse: transformation with strings, dates, factors
…
## [1] "2017-01-31 20:11:59 UTC"

mdy_hm("01/31/2017 08:01")

## [1] "2017-01-31 08:01:00 UTC"

From individual components

Instead of a single string, sometimes you’ll have the individual components of the date-time spread across multiple columns. This is what we have in the flights data:

flights %>% 
  select(year, month, day, hour, minute)

## # A tibble: 336,776 x 5
##     year month   day  hour minute
##    <int> <int> <int> <dbl>  <dbl>
##  1  2013     1     1    5.    15.
##  2  2013     1     1    5.    29.
##  3  2013     1     1    5.    40.
##  4  2013     1     1    5.    45.
##  5  2013     1     1    6.     0.
##  6  2013     1     1    5.    58.
##  7  2013     1     1    6.     0.
##  8  2013     1     1    6.     0.
##  9  2013     1     1    6.     0.
## 10  2013     1     1    6.     0.
## # ... with 336,766 more rows

From individual components

To create a date/time from this sort of input, use make_date() for dates, or make_datetime() for date-times:

flights %>% 
  select(year, month, day, hour, minute) %>% 
  mutate(departure = make_datetime(year, month, day, hour, minute))

## # A tibble: 336,776 x 6
##     year month   day  hour minute departure          
##    <int> <int> <int> <dbl>  <dbl> <dttm>             
##  1  2013     1     1    5.    15. 2013-01-01 05:15:00
##  2  2013     1     1    5.    29. 2013-01-01 05:29:00
##  3  2013     1     1    5.    40. 2013-01-01 05:40:00
##  4  2013     1     1    5.    45. 2013-01-01 05:45:00
##  5  2013     1     1    6.     0. 2013-01-01 06:00:00
##  6  2013     1     1    5.    58. 2013-01-01 05:58:00
##  7  2013     1     1    6.     0. 2013-01-01 06:00:00
##  8  2013     1     1    6.     0. 2013-01-01 06:00:00
##  9  2013     1     1    6.     0. 2013-01-01 06:00:00
## 10  2013     1     1    6.     0. 2013-01-01 06:00:00
## # ... with 336,766 more rows
…
If you omit the levels, they’ll be taken from the data in alphabetical order:

factor(x1)

## [1] Dec Apr Jan Mar
## Levels: Apr Dec Jan Mar

Example data: General Social Survey

For the rest of this chapter, we’re going to focus on forcats::gss_cat. It’s a sample of data from the General Social Survey, which is a long-running US survey conducted by the independent research organization NORC at the University of Chicago. The survey has thousands of questions, so in gss_cat I’ve selected a handful that will illustrate some common challenges you’ll encounter when working with factors.

gss_cat

## # A tibble: 21,483 x 9
##     year marital         age race  rincome  partyid  relig  denom  tvhours
##    <int> <fct>         <int> <fct> <fct>    <fct>    <fct>  <fct>    <int>
##  1  2000 Never married    26 White $8000 t… Ind,nea… Prote… South…      12
##  2  2000 Divorced         48 White $8000 t… Not str… Prote… Bapti…      NA
##  3  2000 Widowed          67 White Not app… Indepen… Prote… No de…       2
##  4  2000 Never married    39 White Not app… Ind,nea… Ortho… Not a…       4
##  5  2000 Divorced         25 White Not app… Not str… None   Not a…       1
##  6  2000 Married          25 White $20000 … Strong … Prote… South…      NA
##  7  2000 Never married    36 White $25000 … Not str… Chris… Not a…       3
##  8  2000 Divorced         44 White $7000 t… Ind,nea… Prote… Luthe…      NA
##  9  2000 Married          44 White $25000 … Not str… Prote… Other        0
## 10  2000 Married          47 White $25000 … Strong … Prote… South…       3
## # ... with 21,473 more rows
…
