Introduction to the tidyverse: tidying data with tidyr
…
library(tidyverse)

## Warning: package 'tibble' was built under R version 3.4.3

## Warning: package 'tidyr' was built under R version 3.4.3

## Warning: package 'stringr' was built under R version 3.4.3

Creating tibbles

Almost all of the functions in tidyverse produce tibbles, as tibbles are one of the unifying features of the tidyverse. Most other R packages use regular data frames, so you might want to coerce a data frame to a tibble. You can do that with as_tibble():

as_tibble(iris)

## # A tibble: 150 x 5
##    Sepal.Length Sepal.Width Petal.Length Petal.Width Species
##           <dbl>       <dbl>        <dbl>       <dbl> <fct>  
##  1         5.10        3.50         1.40       0.200 setosa 
##  2         4.90        3.00         1.40       0.200 setosa 
##  3         4.70        3.20         1.30       0.200 setosa 
##  4         4.60        3.10         1.50       0.200 setosa 
##  5         5.00        3.60         1.40       0.200 setosa 
##  6         5.40        3.90         1.70       0.400 setosa 
##  7         4.60        3.40         1.40       0.300 setosa 
##  8         5.00        3.40         1.50       0.200 setosa 
##  9         4.40        2.90         1.40       0.200 setosa 
## 10         4.90        3.10         1.50       0.100 setosa 
## # ... with 140 more rows
…
There are two main differences in the usage of a tibble vs. a classic data.frame: printing and subsetting.

Printing

Tibbles have a refined print method that shows only the first 10 rows, and all the columns that fit on screen. This makes it much easier to work with large data. In addition to its name, each column reports its type, a nice feature borrowed from str():

tibble(
  a = lubridate::now() + runif(1e3) * 86400,
  b = lubridate::today() + runif(1e3) * 30,
  c = 1:1e3,
  d = runif(1e3),
  e = sample(letters, 1e3, replace = TRUE)
)

## # A tibble: 1,000 x 5
##    a                   b              c      d e    
##    <dttm>              <date>     <int>  <dbl> <chr>
##  1 2018-07-18 10:31:11 2018-08-06     1 0.227  o    
##  2 2018-07-19 03:16:56 2018-08-04     2 0.0276 t    
##  3 2018-07-19 04:00:00 2018-08-11     3 0.744  e    
##  4 2018-07-18 20:30:57 2018-08-06     4 0.821  r    
##  5 2018-07-18 04:28:34 2018-07-27     5 0.486  d    
##  6 2018-07-18 17:59:24 2018-07-28     6 0.204  j    
##  7 2018-07-18 17:36:44 2018-08-09     7 0.333  g    
##  8 2018-07-18 15:30:29 2018-08-01     8 0.148  w    
##  9 2018-07-18 10:20:21 2018-08-02     9 0.550  r    
## 10 2018-07-18 06:27:25 2018-08-01    10 0.365  z    
## # ... with 990 more rows
…
